<?xml version="1.0" encoding="utf-8"?>
<!-- Generator: Adobe Illustrator 18.1.1, SVG Export Plug-In . SVG Version: 6.00 Build 0)  -->
<svg version="1.1" id="Isolation_Mode" xmlns="http://www.w3.org/2000/svg" xmlns:xlink="http://www.w3.org/1999/xlink" x="0px"
	 y="0px" viewBox="0 0 31.1 31.1" enable-background="new 0 0 31.1 31.1" xml:space="preserve">
<path d="M3,30.6L30.6,3c0.7-0.7,0.7-1.8,0-2.5c-0.7-0.7-1.8-0.7-2.5,0L0.5,28.1c-0.7,0.7-0.7,1.8,0,2.5C1.2,31.2,2.3,31.2,3,30.6z"
	/>
<path d="M30.6,28.1L3,0.5c-0.7-0.7-1.8-0.7-2.5,0s-0.7,1.8,0,2.5l27.6,27.6c0.7,0.7,1.8,0.7,2.5,0C31.2,29.9,31.2,28.8,30.6,28.1z"
	/>
</svg>
